ORM initialization successful
App events bus { name: 'booted', namespace: 'shared' }
App updater event { name: 'checkForElectronVersionUpdated',
  namespace: 'appUpdate' }
App events bus { name: 'booted', namespace: 'requester' }
App updater event { data: 
   { additionalParamsString: 'installationId=2b2337c2-6ef9-4002-a2b3-748ecc6c8beb&userId=0&syncEnabled=false&teamPlan=',
     appId: '2b2337c2-6ef9-4002-a2b3-748ecc6c8beb',
     arch: '64',
     channel: 'prod',
     downloadURL: 'https://dl.pstmn.io/download/version/6.1.4/linux_64',
     platform: 'LINUX',
     updateServerDomain: 'https://dl.pstmn.io/',
     userAgent: 'Mozilla/5.0 (X11; Linux x86_64) AppleWebKit/537.36 (KHTML, like Gecko) Postman/6.1.3 Chrome/59.0.3071.115 Electron/1.8.4 Safari/537.36',
     userId: '0',
     version: '6.1.3' },
  name: 'updateElectron',
  namespace: 'appUpdate' }
Linux updateInfo received { additionalParamsString: 'installationId=2b2337c2-6ef9-4002-a2b3-748ecc6c8beb&userId=0&syncEnabled=false&teamPlan=',
  appId: '2b2337c2-6ef9-4002-a2b3-748ecc6c8beb',
  arch: '64',
  channel: 'prod',
  downloadURL: 'https://dl.pstmn.io/download/version/6.1.4/linux_64',
  platform: 'LINUX',
  updateServerDomain: 'https://dl.pstmn.io/',
  userAgent: 'Mozilla/5.0 (X11; Linux x86_64) AppleWebKit/537.36 (KHTML, like Gecko) Postman/6.1.3 Chrome/59.0.3071.115 Electron/1.8.4 Safari/537.36',
  userId: '0',
  version: '6.1.3' }
@postman-app/updater: error { Error: EACCES: permission denied, open '/opt/Postman/Postman-1530116315428.tar.gz'
  errno: -13,
  code: 'EACCES',
  syscall: 'open',
  path: '/opt/Postman/Postman-1530116315428.tar.gz' } { packageName: 'Postman',
  eID: 'Postman-1530116315428',
  downloadURL: 'https://dl.pstmn.io/download/version/6.1.4/linux_64',
  downloadDirectory: '/opt/Postman',
  downloadInfo: 
   { status: 'DOWNLOAD_ERROR',
     error: 
      { Error: EACCES: permission denied, open '/opt/Postman/Postman-1530116315428.tar.gz'
        errno: -13,
        code: 'EACCES',
        syscall: 'open',
        path: '/opt/Postman/Postman-1530116315428.tar.gz' },
     downloadDirectory: '/opt/Postman' } }
App updater event { name: 'electronAppUpdateError',
  namespace: 'appUpdate',
  data: 
   { error: 
      SerialisedError {
        errno: -13,
        code: 'EACCES',
        syscall: 'open',
        path: '/opt/Postman/Postman-1530116315428.tar.gz',
        name: 'Error',
        message: 'EACCES: permission denied, open \'/opt/Postman/Postman-1530116315428.tar.gz\'',
        stack: 'Error: EACCES: permission denied, open \'/opt/Postman/Postman-1530116315428.tar.gz\'' },
     updateData: 
      { packageName: 'Postman',
        eID: 'Postman-1530116315428',
        downloadURL: 'https://dl.pstmn.io/download/version/6.1.4/linux_64',
        downloadDirectory: '/opt/Postman',
        downloadInfo: [Object] } } }
Closed Window (id: 3)
